{
  "android_play_store_link": "",
  "ios_app_store_link": "",
  "sticker_packs": [
    {
      "identifier": "1",
      "name": "PESU Party Pack",
      "publisher": "PES University",
      "tray_image_file": "tray_stickers.png",
      "image_data_version":"1",
      "avoid_cache":false,
      "publisher_email":"admissions@pes.edu",
      "publisher_website": "https://pes.edu/",
      "privacy_policy_website": "https://pes.edu/",
      "license_agreement_website": "https://pes.edu/",
      "stickers": [
        {
          "image_file": "mrd.webp",
          "emojis": ["🎀","🎊","🎉"]
        },
        {
          "image_file": "mahesh.webp",
          "emojis": ["😲","😵","😨"]
        },
        {
          "image_file": "yash.webp",
          "emojis": ["😎","😑","🙄"]
        },
        {
          "image_file": "aekansh.webp",
          "emojis": ["😂","🤣","😆"]
        },
        {
          "image_file": "channa.webp",
          "emojis": ["😛","😜","😝"]
        },
        {
          "image_file": "channa_killmode.webp",
          "emojis": ["🔪","🤫","😎"]
        },
        {
          "image_file": "money_gone.webp",
          "emojis": ["💰","💸","🤑"]
        },
        {
          "image_file": "sid.webp",
          "emojis": ["😎","🤓","😏"]
        },
        {
          "image_file": "ajoy.webp",
          "emojis": ["😦","😲","🤭"]
        }
      ]
    }
  ]
}
